<svg class="icon icon-checkmark-tentative" xmlns="http://www.w3.org/2000/svg" viewBox="0 0 169.89 169.89">
  <defs>
    <style>
      .b{
      stroke-width:16px;
      }
      .b,.c{
      fill:none;
      stroke:#231f20;
      stroke-linecap:round;
      stroke-miterlimit:10;
      }
      .c{
      stroke-width:12px;
      }
    </style>
  </defs>
  <polyline class="b" points="43.45 86.54 70.81 115.05 119.51 54.84"/>
  <path class="c b" d="M24.56,47.34c-6.73,8.85-11.01,22.09-11.01,36.9s4.28,28.05,11.01,36.9"/>
  <path class="c b" d="M145.33,121.13c6.73-8.85,11.01-22.09,11.01-36.9s-4.28-28.05-11.01-36.9"/>
</svg>
