<svg class='icon icon-description' xmlns="http://www.w3.org/2000/svg" viewBox="0 0 169.89 169.89">
  <defs>
    <style>
      .b{
      fill:none;
      stroke:#231f20;
      stroke-linecap:round;
      stroke-miterlimit:10;
      stroke-width:16px;
      }
    </style>
  </defs>
  <line class="b" x1="46.26" y1="55.54" x2="123.63" y2="55.54"/>
  <line class="b" x1="46.26" y1="84.94" x2="123.63" y2="84.94"/>
  <line class="b" x1="68.82" y1="114.34" x2="123.63" y2="114.34"/>
</svg>
